…
``` r
## What happens, and why? Does this help explain what happens when you try to take the mean?
# Ans: Only the numeric variables can be calculated (or multiplied by) with the random sample. This also help to explain what happens when we tried to take the mean. Since only numeric variables can be calculated, including taking mean. Character / Logical variables are not available for the calculation.
```

Problem 2

``` r
data("penguins", package = "palmerpenguins")
#1.the data in this dataset, including names / values of important variables
penguins
```

    ## # A tibble: 344 x 8
    ##    species island bill_length_mm bill_depth_mm flipper_length_… body_mass_g
    ##    <fct>   <fct>           <dbl>         <dbl>            <int>       <int>
    ##  1 Adelie  Torge…           39.1          18.7              181        3750
    ##  2 Adelie  Torge…           39.5          17.4              186        3800
    ##  3 Adelie  Torge…           40.3          18                195        3250
    ##  4 Adelie  Torge…           NA            NA                 NA          NA
    ##  5 Adelie  Torge…           36.7          19.3              193        3450
    ##  6 Adelie  Torge…           39.3          20.6              190        3650
    ##  7 Adelie  Torge…           38.9          17.8              181        3625
    ##  8 Adelie  Torge…           39.2          19.6              195        4675
    ##  9 Adelie  Torge…           34.1          18.1              193        3475
    ## 10 Adelie  Torge…           42            20.2              190        4250
    ## # … with 334 more rows, and 2 more variables: sex <fct>, year <int>
…
